<?xml version="1.0" encoding="utf-8"?>
<!-- Generator: Adobe Illustrator 16.0.4, SVG Export Plug-In . SVG Version: 6.00 Build 0)  -->
<!DOCTYPE svg PUBLIC "-//W3C//DTD SVG 1.1//EN" "http://www.w3.org/Graphics/SVG/1.1/DTD/svg11.dtd">
<svg version="1.1" xmlns="http://www.w3.org/2000/svg" xmlns:xlink="http://www.w3.org/1999/xlink" x="0px" y="0px"
	 width="555.125px" height="85.25px" viewBox="0 0 555.125 85.25" enable-background="new 0 0 555.125 85.25" xml:space="preserve">
<g id="Layer_1">
</g>
<g id="Layer_2">
	<g>
		<g>
			<path fill="#B4E1FF" d="M496.409,13.444c3.355,3.579,5.923,7.824,7.632,12.615c1.684,4.722,2.537,9.812,2.537,15.13
				c0,1.686-0.971,3.328-1.125,4.934l2.797,7.226V78.75h21V53.554L554.873,5.75h-21.662l-13.282,31.368L506.952,5.75h-21.56
				l0.385,0.387C489.917,8.121,493.488,10.329,496.409,13.444z"/>
			<path fill="#B4E1FF" d="M441.771,13.811c3.354,3.578,5.921,7.641,7.629,12.432c1.685,4.722,2.538,9.722,2.538,15.039
				c0,5.896-0.951,11.278-2.825,16.09c-1.893,4.863-4.632,9.66-8.144,13.135c-3.274,3.237-7.21,6.244-11.694,8.244h37.505
				c5.519,0,10.524-1.461,15.021-3.198c4.496-1.736,8.343-4.485,11.546-7.652c3.201-3.168,5.671-7.129,7.407-11.593
				c1.738-4.46,2.606-9.525,2.606-15.043c0-4.971-0.784-9.692-2.351-14.087c-1.567-4.394-3.883-8.242-6.947-11.513
				c-3.066-3.269-6.882-5.501-11.444-7.41c-4.565-1.906-9.844-2.504-15.838-2.504h-37.318
				C434.319,8.75,438.462,10.283,441.771,13.811z M458.25,23.75h8.53c2.52,0,4.803-0.22,6.847,0.699
				c2.043,0.92,3.762,1.857,5.159,3.491c1.396,1.634,2.469,3.441,3.219,5.756c0.749,2.317,1.124,4.786,1.124,7.578
				c0,2.726-0.357,5.204-1.072,7.52c-0.716,2.316-1.772,4.306-3.168,6.007c-1.396,1.703-3.117,3.298-5.16,4.251
				c-2.044,0.955-4.359,1.698-6.948,1.698h-8.53V23.75z"/>
			<path fill="#B4E1FF" d="M394.586,57.375c-1.418,4.808-3.457,9.63-6.462,13.159c-2.648,3.115-5.718,6.216-9.544,8.216h33.561
				c5.519,0,10.525-1.461,15.021-3.198c4.496-1.736,8.343-4.485,11.546-7.652c3.201-3.168,5.671-7.129,7.408-11.593
				c1.737-4.46,2.605-9.525,2.605-15.043c0-4.971-0.783-9.692-2.351-14.087c-1.566-4.394-3.883-8.242-6.947-11.513
				c-3.066-3.269-6.882-5.501-11.444-7.41c-4.564-1.906-9.844-2.504-15.838-2.504H396.25v36.563
				C396.25,47.638,395.96,52.704,394.586,57.375z M403.25,23.75h8.891c2.52,0,4.803-0.22,6.847,0.699
				c2.043,0.92,3.763,1.857,5.159,3.491c1.396,1.634,2.469,3.441,3.219,5.756c0.749,2.317,1.124,4.786,1.124,7.578
				c0,2.726-0.356,5.204-1.072,7.52c-0.716,2.316-1.772,4.306-3.167,6.007c-1.397,1.703-3.117,3.298-5.161,4.251
				c-2.044,0.955-4.359,1.698-6.948,1.698h-8.891V23.75z"/>
			<path fill="#B4E1FF" d="M341.487,41.256c1.585,3.48,2.224,6.901,1.901,10.17c-0.319,3.216-1.409,6.256-3.241,9.036
				c-1.351,2.046-3.063,3.968-5.094,5.739c0.31,0.425,0.63,0.841,0.961,1.248c2.656,3.27,6.045,5.876,10.166,7.816
				c4.121,1.941,9.076,2.913,14.867,2.913c5.584,0,10.438-0.919,14.561-2.759c4.121-1.839,7.544-4.359,10.269-7.562
				c2.725-3.201,4.436-6.999,5.73-11.392c1.293-4.395,1.643-9.11,1.643-14.152V5.75h-9.003H372.25v36.563
				c0,2.386,0.596,4.667,0.121,6.847c-0.479,2.181-0.808,4.104-1.83,5.771c-1.021,1.671-2.142,3.015-3.775,4.037
				c-1.635,1.022-3.508,1.532-5.822,1.532c-2.317,0-4.223-0.493-5.822-1.481c-1.602-0.987-2.887-2.315-3.908-3.984
				c-1.022-1.668-2.272-3.609-2.748-5.824c-0.478-2.213-1.215-4.512-1.215-6.897V5.75h-20v23.021c1,0.353,2.795,0.794,3.861,1.336
				C335.219,32.198,339.076,35.95,341.487,41.256z"/>
			<path fill="#B4E1FF" d="M337.462,58.689c1.548-2.35,2.456-4.878,2.725-7.581c0.267-2.703-0.273-5.545-1.628-8.52
				c-2.113-4.65-4.901-7.855-8.356-9.614c-2.573-1.31-5.38-1.965-8.416-1.965c-1.041,0-2.109,0.077-3.204,0.231
				c2.516-2.863,3.924-6.064,4.222-9.607c0.297-3.538-0.258-6.858-1.668-9.961c-0.959-2.107-2.254-4.007-3.882-5.7
				c-1.631-1.688-3.455-3.029-5.479-4.018c-2.019-0.99-4.186-1.557-6.496-1.703c-0.283-0.018-0.567-0.027-0.851-0.027
				c-2.026,0-4.046,0.457-6.058,1.372L260.048,19.02l30.027,66.041l32.462-14.759c3.223-1.466,6.13-3.182,8.716-5.143
				C333.844,63.195,335.91,61.041,337.462,58.689z M289.816,36.353l-4.609-10.139l12.928-5.879c0.688-0.312,1.383-0.469,2.086-0.469
				c0.501,0,1.004,0.079,1.513,0.236c1.22,0.383,2.238,1.471,3.058,3.269c0.931,2.047,1.04,3.643,0.326,4.791
				c-0.712,1.147-1.689,2.002-2.931,2.566L289.816,36.353z M318.735,51.938c-0.603,1.396-1.645,2.431-3.134,3.108l-14.324,6.513
				l-5.032-11.068l14.976-6.811c0.644-0.292,1.287-0.438,1.932-0.438c0.72,0,1.438,0.182,2.155,0.545
				c1.36,0.691,2.409,1.842,3.143,3.455C319.239,48.978,319.334,50.545,318.735,51.938z"/>
		</g>
		<g>
			<polygon fill="#B4E1FF" points="246.25,60.75 214.25,60.75 214.25,48.75 240.25,48.75 240.25,32.75 214.25,32.75 214.25,23.75 
				245.25,23.75 245.25,5.75 195.25,5.75 195.25,5.173 195.25,77.75 246.25,77.75 			"/>
			<polygon fill="#B4E1FF" points="138.25,77.75 138.25,39.087 151.614,65.75 162.112,65.75 173.25,39.087 173.25,77.75 
				192.25,77.75 192.25,5.75 172.406,5.75 156.862,39.461 141.421,5.75 119.25,5.75 119.25,49.853 129.955,77.75 			"/>
			<path fill="#B4E1FF" d="M93.337,21.532l8.031,31.218H86.851l0.857,0.419l-1.854,0.792L75.22,60.819l-1.853,1.123l-1.249-1.899
				l-4.416-6.555l-0.138,0.358c-0.646,2.963-1.809,6.601-3.43,9.635L58.978,77.75h19.174l4.39-15h21.433l4.493,15h19.078l-26.759-72
				h-14.95L75.239,33.707l10.26,15.869L93.337,21.532z"/>
			<path fill="#B4E1FF" d="M73.977,58.73l10.634-7.081L66.543,24.098L36.377,36.202l6.063,11.743l12.014-4.506
				c-0.752,3-1.888,5.572-3.406,7.718c-1.523,2.146-3.397,4.406-5.627,5.515c-1.943,0.963-3.919,2.078-5.932,2.078
				c-0.043,0-0.086,0-0.129,0c-2.057,0-4.049-1.128-5.981-2.063c-1.93-0.933-3.743-2.606-5.44-4.39
				c-1.697-1.782-3.193-4.135-4.484-6.736c-1.263-2.539-2.098-5.119-2.511-7.578c-0.411-2.46-0.429-4.79-0.052-6.908
				c0.377-2.115,1.14-4.02,2.288-5.673c1.15-1.652,2.652-2.951,4.511-3.873c2.027-1.007,4.044-1.689,6.327-1.689
				c0.575,0,1.168,0.04,1.782,0.132c3.046,0.457,6.569,1.617,8.977,3.664l7.821-16.576c-2.222-1.677-4.625-2.973-7.206-3.893
				c-2.581-0.918-5.27-1.473-8.068-1.668c-0.679-0.046-1.35-0.067-2.013-0.067c-2.255,0-4.418,0.256-6.48,0.696
				c-2.864,0.611-5.686,1.608-8.475,2.993c-4.459,2.217-8.217,5.147-11.274,8.788c-3.056,3.643-5.292,7.65-6.712,12.022
				c-1.418,4.376-1.957,8.966-1.611,13.778c0.341,4.81,1.668,9.538,3.976,14.185c2.279,4.585,5.244,8.536,8.902,11.853
				c3.656,3.32,7.632,6.258,11.929,7.984c4.292,1.727,8.723,3.02,13.286,3.02c0.028,0,0.055,0,0.083,0
				c4.53,0,8.828-1.424,12.892-3.441C61.521,68.5,67.17,53.336,65.686,46.685L73.977,58.73z"/>
		</g>
	</g>
</g>
</svg>
